{
  "name": "ibillboard-test",
  "version": "0.0.1",
  "description": "",
  "sampleUrl": false,
  "defaultVersion": "0.0.0",
  "apidoc": "0.3.0",
  "generator": {
    "name": "apidoc",
    "time": "2019-03-23T08:02:03.213Z",
    "url": "http://apidocjs.com",
    "version": "0.17.7"
  }
}
